…
2. What word has the highest number of vowels? What word has the highest proportion of vowels? (Hint: what is the denominator?)

A few words all have 5 vowels in them. "a" technically has the highest proportion of vowels.


```r
tibble(words) %>% 
    mutate(vowel_count = str_count(words, "[aeiou]"),
           vowel_prop = vowel_count / str_count(words)) %>% 
    #arrange(-vowel_count) %>%
    arrange(-vowel_prop)
```

```
## # A tibble: 980 x 3
##    words  vowel_count vowel_prop
##    <chr>        <int>      <dbl>
##  1 a                1      1.00 
##  2 area             3      0.750
##  3 idea             3      0.750
##  4 age              2      0.667
##  5 ago              2      0.667
##  6 air              2      0.667
##  7 die              2      0.667
##  8 due              2      0.667
##  9 eat              2      0.667
## 10 europe           4      0.667
## # ... with 970 more rows
```
…
This approach is limited to the specific number words we give. 


```r
tibble(sentence = sentences) %>% 
  tidyr::extract(
    sentence, c("number", "after"), 
        "(zero|one|two|three|four|five|six|seven|eight|nine|ten) ([^ ]+)", 
    remove = FALSE) %>%
  filter(!is.na(number))    
```

```
## # A tibble: 36 x 3
##    sentence                                    number after  
##    <chr>                                       <chr>  <chr>  
##  1 Rice is often served in round bowls.        ten    served 
##  2 Lift the square stone over the fence.       one    over   
##  3 The rope will bind the seven books at once. seven  books  
##  4 The two met while playing on the sand.      two    met    
##  5 There are more than two factors here.       two    factors
##  6 He lay prone and hardly moved a limb.       one    and    
##  7 Type out three lists of orders.             three  lists  
##  8 Two plus seven is less than ten.            seven  is     
##  9 Drop the two when you add the figures.      two    when   
## 10 Torn scraps littered the stone floor.       one    floor. 
## # ... with 26 more rows
```
…
