…
## 13.3.1 Exercises

1. Add a surrogate key to `flights`.

Counting by `year`, `month`, `day`, `hour`, `minute`, `tailnum` and filtering for `n > 1` returns 298 rows so we have no primary key in the `flights` table. 


```r
flights %>%
    count(year, month, day, hour, minute, tailnum) %>%
    filter(n > 1)
```

```
## # A tibble: 298 x 7
##     year month   day  hour minute tailnum     n
##    <int> <int> <int> <dbl>  <dbl> <chr>   <int>
##  1  2013     1    13   20.     0. N12564      2
##  2  2013     1    16   18.    15. <NA>        3
##  3  2013     1    23   14.     0. <NA>        2
##  4  2013     1    25   18.     0. <NA>        2
##  5  2013     1    28    7.    59. N13969      2
##  6  2013     1    30   16.     0. <NA>        2
##  7  2013     1    30   16.     5. <NA>        2
##  8  2013     1    30   19.     0. <NA>        2
##  9  2013     1    31    7.     0. <NA>        2
## 10  2013     1    31    8.     0. <NA>        2
## # ... with 288 more rows
```

We can arrange first before adding rownames as a surrogate key to give the key some meaning if not an absolute one.


```r
flights %>%
    arrange(year, month, day, hour, minute, tailnum) %>%
    rownames_to_column("id")
```

```
## # A tibble: 336,776 x 20
##    id     year month   day dep_time sched_dep_time dep_delay arr_time
##    <chr> <int> <int> <int>    <int>          <int>     <dbl>    <int>
##  1 1      2013     1     1      517            515        2.      830
##  2 2      2013     1     1      533            529        4.      850
##  3 3      2013     1     1      542            540        2.      923
##  4 4      2013     1     1      544            545       -1.     1004
##  5 5      2013     1     1      554            558       -4.      740
##  6 6      2013     1     1      559            559        0.      702
##  7 7      2013     1     1      558            600       -2.      924
##  8 8      2013     1     1      558            600       -2.      753
##  9 9      2013     1     1      559            600       -1.      941
## 10 10     2013     1     1      555            600       -5.      913
## # ... with 336,766 more rows, and 12 more variables: sched_arr_time <int>,
## #   arr_delay <dbl>, carrier <chr>, flight <int>, tailnum <chr>,
## #   origin <chr>, dest <chr>, air_time <dbl>, distance <dbl>, hour <dbl>,
## #   minute <dbl>, time_hour <dttm>
```
…
We could do this with two `left_join`s, renaming the added variables each time for clarity.


```r
flights %>%
    select(carrier, flight, tailnum, origin, dest) %>%
    left_join(select(airports, faa, lat, lon), by = c("origin" = "faa")) %>%
    rename(lat_origin = lat, lon_origin = lon) %>%
    left_join(select(airports, faa, lat, lon), by = c("dest" = "faa")) %>%
    rename(lat_dest = lat, lon_dest = lon)
```

```
## # A tibble: 336,776 x 9
##    carrier flight tailnum origin dest  lat_origin lon_origin lat_dest
##    <chr>    <int> <chr>   <chr>  <chr>      <dbl>      <dbl>    <dbl>
##  1 UA        1545 N14228  EWR    IAH         40.7      -74.2     30.0
##  2 UA        1714 N24211  LGA    IAH         40.8      -73.9     30.0
##  3 AA        1141 N619AA  JFK    MIA         40.6      -73.8     25.8
##  4 B6         725 N804JB  JFK    BQN         40.6      -73.8     NA  
##  5 DL         461 N668DN  LGA    ATL         40.8      -73.9     33.6
##  6 UA        1696 N39463  EWR    ORD         40.7      -74.2     42.0
##  7 B6         507 N516JB  EWR    FLL         40.7      -74.2     26.1
##  8 EV        5708 N829AS  LGA    IAD         40.8      -73.9     38.9
##  9 B6          79 N593JB  JFK    MCO         40.6      -73.8     28.4
## 10 AA         301 N3ALAA  LGA    ORD         40.8      -73.9     42.0
## # ... with 336,766 more rows, and 1 more variable: lon_dest <dbl>
```
…
We could do this in two steps. First, find a vector of `tailnum` that match the desired criteria. Then, filter by representation in that vector.


```r
# find tailnum of flights with at least 100 flights
tail100 <- flights %>% 
    count(tailnum, sort = TRUE) %>% 
    filter(!is.na(tailnum), n >= 100) %>% pull(tailnum)

flights %>%
    filter(tailnum %in% tail100)
```

```
## # A tibble: 228,390 x 19
##     year month   day dep_time sched_dep_time dep_delay arr_time
##    <int> <int> <int>    <int>          <int>     <dbl>    <int>
##  1  2013     1     1      517            515        2.      830
##  2  2013     1     1      533            529        4.      850
##  3  2013     1     1      544            545       -1.     1004
##  4  2013     1     1      554            558       -4.      740
##  5  2013     1     1      555            600       -5.      913
##  6  2013     1     1      557            600       -3.      709
##  7  2013     1     1      557            600       -3.      838
##  8  2013     1     1      558            600       -2.      849
##  9  2013     1     1      558            600       -2.      853
## 10  2013     1     1      558            600       -2.      923
## # ... with 228,380 more rows, and 12 more variables: sched_arr_time <int>,
## #   arr_delay <dbl>, carrier <chr>, flight <int>, tailnum <chr>,
## #   origin <chr>, dest <chr>, air_time <dbl>, distance <dbl>, hour <dbl>,
## #   minute <dbl>, time_hour <dttm>
```

Alternatively we could accomplish this in one step with a `semi_join`.


```r
flights %>%
  semi_join(count(flights, tailnum) %>% filter(!is.na(tailnum), n >= 100), 
            by = "tailnum")
```

```
## # A tibble: 228,390 x 19
##     year month   day dep_time sched_dep_time dep_delay arr_time
##    <int> <int> <int>    <int>          <int>     <dbl>    <int>
##  1  2013     1     1      517            515        2.      830
##  2  2013     1     1      533            529        4.      850
##  3  2013     1     1      544            545       -1.     1004
##  4  2013     1     1      554            558       -4.      740
##  5  2013     1     1      555            600       -5.      913
##  6  2013     1     1      557            600       -3.      709
##  7  2013     1     1      557            600       -3.      838
##  8  2013     1     1      558            600       -2.      849
##  9  2013     1     1      558            600       -2.      853
## 10  2013     1     1      558            600       -2.      923
## # ... with 228,380 more rows, and 12 more variables: sched_arr_time <int>,
## #   arr_delay <dbl>, carrier <chr>, flight <int>, tailnum <chr>,
## #   origin <chr>, dest <chr>, air_time <dbl>, distance <dbl>, hour <dbl>,
## #   minute <dbl>, time_hour <dttm>
```

3. Combine `fueleconomy::vehicles` and `fueleconomy::common` to find only the records for the most common models.

We only need to `semi_join` by the primary key of `fueleconomy::common`, which is `make`,`model`.


```r
fueleconomy::vehicles %>%
  semi_join(fueleconomy::common, by = c("make", "model"))
```

```
## # A tibble: 14,531 x 12
##       id make  model  year class trans drive   cyl displ fuel    hwy   cty
##    <int> <chr> <chr> <int> <chr> <chr> <chr> <int> <dbl> <chr> <int> <int>
##  1  1833 Acura Inte…  1986 Subc… Auto… Fron…     4  1.60 Regu…    28    22
##  2  1834 Acura Inte…  1986 Subc… Manu… Fron…     4  1.60 Regu…    28    23
##  3  3037 Acura Inte…  1987 Subc… Auto… Fron…     4  1.60 Regu…    28    22
##  4  3038 Acura Inte…  1987 Subc… Manu… Fron…     4  1.60 Regu…    28    23
##  5  4183 Acura Inte…  1988 Subc… Auto… Fron…     4  1.60 Regu…    27    22
##  6  4184 Acura Inte…  1988 Subc… Manu… Fron…     4  1.60 Regu…    28    23
##  7  5303 Acura Inte…  1989 Subc… Auto… Fron…     4  1.60 Regu…    27    22
##  8  5304 Acura Inte…  1989 Subc… Manu… Fron…     4  1.60 Regu…    28    23
##  9  6442 Acura Inte…  1990 Subc… Auto… Fron…     4  1.80 Regu…    24    20
## 10  6443 Acura Inte…  1990 Subc… Manu… Fron…     4  1.80 Regu…    26    21
## # ... with 14,521 more rows
```
…
flights %>%
    filter(tailnum %in% multiple_carriers) %>%
    group_by(tailnum, carrier) %>%
    summarize(n = n())
```

```
## # A tibble: 41 x 3
## # Groups:   tailnum [?]
##    tailnum carrier     n
##    <chr>   <chr>   <int>
##  1 N146PQ  9E          8
##  2 N146PQ  EV         36
##  3 N153PQ  9E          5
##  4 N153PQ  EV         26
##  5 N176PQ  9E          7
##  6 N176PQ  EV         21
##  7 N181PQ  9E          4
##  8 N181PQ  EV         35
##  9 N197PQ  9E          2
## 10 N197PQ  EV         31
## # ... with 31 more rows
```
