16 Dates and Times Exercises Solutions
…
Compare dep_time, sched_dep_time and dep_delay. Are they consistent? Explain your findings.

Wed expect the difference between dep_time and sched_dep_time to equal dep_delay but for 1205 rows that is not the case. It seems like in most of these cases a flight is scheduled for late evening but takes off after midnight (e.g.the next day). However the date for dep_time has not changed.

flights_dt %>%
    select(dep_delay, dep_time, sched_dep_time) %>%
    mutate(dif1 = dep_time - sched_dep_time,
           dur_delay = dminutes(dep_delay),
           dur_dif = dseconds(interval(sched_dep_time, dep_time))) %>%
    filter(dur_delay != dur_dif)

## # A tibble: 1,205 x 6
##    dep_delay dep_time            sched_dep_time      dif1  
##        <dbl> <dttm>              <dttm>              <time>
##  1      853. 2013-01-01 08:48:00 2013-01-01 18:35:00 -35220
##  2       43. 2013-01-02 00:42:00 2013-01-02 23:59:00 -83820
##  3      156. 2013-01-02 01:26:00 2013-01-02 22:50:00 -77040
##  4       33. 2013-01-03 00:32:00 2013-01-03 23:59:00 -84420
##  5      185. 2013-01-03 00:50:00 2013-01-03 21:45:00 -75300
##  6      156. 2013-01-03 02:35:00 2013-01-03 23:59:00 -77040
##  7       26. 2013-01-04 00:25:00 2013-01-04 23:59:00 -84840
##  8      141. 2013-01-04 01:06:00 2013-01-04 22:45:00 -77940
##  9       15. 2013-01-05 00:14:00 2013-01-05 23:59:00 -85500
## 10      127. 2013-01-05 00:37:00 2013-01-05 22:30:00 -78780
## # ... with 1,195 more rows, and 2 more variables: dur_delay <S4:
## #   Duration>, dur_dif <S4: Duration>
…
We can add a period of n months with months() but a month is not a consistent duration in terms of elapsed seconds because months have differing numbers of seconds in them.

Explain days(overnight * 1) to someone who has just started learning R. How does it work?

We saw this in the code below. overnight is binary T/F variable created from a logical expression. TRUE values of this variable evaluate to 1 and FALSE values evaluate to 0. Therefore the expression inside the parentheses acts as a filter. For TRUE values, the expression evaluates to days(1) and for FALSE values, days(0). days() is a function that creates a period object with the specified values (0 or 1). So it ends up adding a period of 1 day when overnight is TRUE and remains the same for FALSE values.

flights_dt %>% 
  mutate(
    overnight = arr_time < dep_time,
    arr_time = arr_time + days(overnight * 1),
    sched_arr_time = sched_arr_time + days(overnight * 1)
  )

## # A tibble: 328,063 x 10
##    origin dest  dep_delay arr_delay dep_time           
##    <chr>  <chr>     <dbl>     <dbl> <dttm>             
##  1 EWR    IAH          2.       11. 2013-01-01 05:17:00
##  2 LGA    IAH          4.       20. 2013-01-01 05:33:00
##  3 JFK    MIA          2.       33. 2013-01-01 05:42:00
##  4 JFK    BQN         -1.      -18. 2013-01-01 05:44:00
##  5 LGA    ATL         -6.      -25. 2013-01-01 05:54:00
##  6 EWR    ORD         -4.       12. 2013-01-01 05:54:00
##  7 EWR    FLL         -5.       19. 2013-01-01 05:55:00
##  8 LGA    IAD         -3.      -14. 2013-01-01 05:57:00
##  9 JFK    MCO         -3.       -8. 2013-01-01 05:57:00
## 10 LGA    ORD         -2.        8. 2013-01-01 05:58:00
## # ... with 328,053 more rows, and 5 more variables: sched_dep_time <dttm>,
## #   arr_time <dttm>, sched_arr_time <dttm>, air_time <dbl>,
## #   overnight <lgl>
…
